#
# There is insufficient memory for the Java Runtime Environment to continue.
# Native memory allocation (malloc) failed to allocate 103809024 bytes for committing reserved memory.
# Possible reasons:
#   The system is out of physical RAM or swap space
#   In 32 bit mode, the process size limit was hit
# Possible solutions:
#   Reduce memory load on the system
#   Increase physical memory or swap space
#   Check if swap backing store is full
#   Use 64 bit Java on a 64 bit OS
#   Decrease Java heap size (-Xmx/-Xms)
#   Decrease number of Java threads
#   Decrease Java thread stack sizes (-Xss)
#   Set larger code cache with -XX:ReservedCodeCacheSize=
# This output file may be truncated or incomplete.
#
#  Out of Memory Error (os_linux.cpp:2756), pid=26390, tid=139966751135488
#
# JRE version: Java(TM) SE Runtime Environment (7.0_80-b15) (build 1.7.0_80-b15)
# Java VM: Java HotSpot(TM) 64-Bit Server VM (24.80-b11 mixed mode linux-amd64 compressed oops)
# Failed to write core dump. Core dumps have been disabled. To enable core dumping, try "ulimit -c unlimited" before starting Java again
#

---------------  T H R E A D  ---------------

Current thread (0x00007f4c90065000):  VMThread [stack: 0x00007f4c8c6b5000,0x00007f4c8c7b6000] [id=26395]

Stack: [0x00007f4c8c6b5000,0x00007f4c8c7b6000],  sp=0x00007f4c8c7b41e0,  free space=1020k
Native frames: (J=compiled Java code, j=interpreted, Vv=VM code, C=native code)
V  [libjvm.so+0x9a320a]  VMError::report_and_die()+0x2ea
V  [libjvm.so+0x498d3b]  report_vm_out_of_memory(char const*, int, unsigned long, char const*)+0x9b
V  [libjvm.so+0x82191e]  os::Linux::commit_memory_impl(char*, unsigned long, bool)+0xfe
V  [libjvm.so+0x821e69]  os::pd_commit_memory(char*, unsigned long, unsigned long, bool)+0x29
V  [libjvm.so+0x81bb6a]  os::commit_memory(char*, unsigned long, unsigned long, bool)+0x2a
V  [libjvm.so+0x88d623]  PSVirtualSpace::expand_by(unsigned long)+0x53
V  [libjvm.so+0x87ca80]  PSOldGen::expand(unsigned long)+0x170
V  [libjvm.so+0x87cc8b]  PSOldGen::resize(unsigned long)+0x1cb
V  [libjvm.so+0x885951]  PSParallelCompact::invoke_no_policy(bool)+0x9b1
V  [libjvm.so+0x88b8cd]  PSScavenge::invoke()+0x1ad
V  [libjvm.so+0x843f40]  ParallelScavengeHeap::failed_mem_allocate(unsigned long)+0x70
V  [libjvm.so+0x9a4a97]  VM_ParallelGCFailedAllocation::doit()+0x97
V  [libjvm.so+0x9abf35]  VM_Operation::evaluate()+0x55
V  [libjvm.so+0x9aa2fa]  VMThread::evaluate_operation(VM_Operation*)+0xba
V  [libjvm.so+0x9aa67e]  VMThread::loop()+0x1ce
V  [libjvm.so+0x9aaaf0]  VMThread::run()+0x70
V  [libjvm.so+0x8238c8]  java_start(Thread*)+0x108

VM_Operation (0x00007f4c99b59580): ParallelGCFailedAllocation, mode: safepoint, requested by thread 0x00007f4c9000a000


---------------  P R O C E S S  ---------------

Java Threads: ( => current thread )
  0x00007f4c90094000 JavaThread "Service Thread" daemon [_thread_blocked, id=26401, stack(0x00007f4c77cfd000,0x00007f4c77dfe000)]
  0x00007f4c90091800 JavaThread "C2 CompilerThread1" daemon [_thread_blocked, id=26400, stack(0x00007f4c77dfe000,0x00007f4c77eff000)]
  0x00007f4c9008e800 JavaThread "C2 CompilerThread0" daemon [_thread_blocked, id=26399, stack(0x00007f4c77eff000,0x00007f4c78000000)]
  0x00007f4c9008c800 JavaThread "Signal Dispatcher" daemon [_thread_blocked, id=26398, stack(0x00007f4c8c092000,0x00007f4c8c193000)]
  0x00007f4c9006b800 JavaThread "Finalizer" daemon [_thread_blocked, id=26397, stack(0x00007f4c8c4b3000,0x00007f4c8c5b4000)]
  0x00007f4c90069800 JavaThread "Reference Handler" daemon [_thread_blocked, id=26396, stack(0x00007f4c8c5b4000,0x00007f4c8c6b5000)]
  0x00007f4c9000a000 JavaThread "main" [_thread_blocked, id=26392, stack(0x00007f4c99a5b000,0x00007f4c99b5c000)]

Other Threads:
=>0x00007f4c90065000 VMThread [stack: 0x00007f4c8c6b5000,0x00007f4c8c7b6000] [id=26395]
  0x00007f4c9009e800 WatcherThread [stack: 0x00007f4c77bfc000,0x00007f4c77cfd000] [id=26402]

VM state:at safepoint (normal execution)

VM Mutex/Monitor currently owned by a thread:  ([mutex/lock_event])
[0x00007f4c90005a90] ExpandHeap_lock - owner thread: 0x00007f4c90065000
[0x00007f4c90006110] Threads_lock - owner thread: 0x00007f4c90065000
[0x00007f4c90006610] Heap_lock - owner thread: 0x00007f4c9000a000

Heap
 PSYoungGen      total 246784K, used 0K [0x00000000eb680000, 0x0000000100000000, 0x0000000100000000)
  eden space 241664K, 0% used [0x00000000eb680000,0x00000000eb680000,0x00000000fa280000)
  from space 5120K, 0% used [0x00000000fa280000,0x00000000fa280000,0x00000000fa780000)
  to   space 49152K, 0% used [0x00000000fd000000,0x00000000fd000000,0x0000000100000000)
 ParOldGen       total 343040K, used 336554K [0x00000000c2400000, 0x00000000d7300000, 0x00000000eb680000)
  object space 343040K, 98% used [0x00000000c2400000,0x00000000d6caaa28,0x00000000d7300000)
 PSPermGen       total 83968K, used 65311K [0x00000000bd200000, 0x00000000c2400000, 0x00000000c2400000)
  object space 83968K, 77% used [0x00000000bd200000,0x00000000c11c7fe0,0x00000000c2400000)

Card table byte_map: [0x00007f4c96b10000,0x00007f4c96d28000] byte_map_base: 0x00007f4c96527000

Polling page: 0x00007f4c99b65000

Code Cache  [0x00007f4c8d000000, 0x00007f4c8d5c0000, 0x00007f4c90000000)
 total_blobs=2577 nmethods=2197 adapters=332 free_code_cache=43499Kb largest_free_block=44363648

Compilation events (10 events):
Event: 162.604 Thread 0x00007f4c9008e800 2549             java.util.regex.Pattern$GroupHead::<init> (10 bytes)
Event: 162.605 Thread 0x00007f4c9008e800 nmethod 2549 0x00007f4c8d0d6f10 code [0x00007f4c8d0d7040, 0x00007f4c8d0d70b8]
Event: 163.264 Thread 0x00007f4c9008e800 2550             java.util.regex.Pattern$Dollar::match (209 bytes)
Event: 163.268 Thread 0x00007f4c9008e800 nmethod 2550 0x00007f4c8d3ed910 code [0x00007f4c8d3edac0, 0x00007f4c8d3edf38]
Event: 163.627 Thread 0x00007f4c90091800 2551             java.util.regex.Pattern::expr (139 bytes)
Event: 163.643 Thread 0x00007f4c9008e800 2552             java.lang.String::contains (20 bytes)
Event: 163.644 Thread 0x00007f4c9008e800 nmethod 2552 0x00007f4c8d0d6b10 code [0x00007f4c8d0d6c60, 0x00007f4c8d0d6e38]
Event: 163.671 Thread 0x00007f4c90091800 nmethod 2551 0x00007f4c8d231950 code [0x00007f4c8d231b00, 0x00007f4c8d2322c8]
Event: 164.222 Thread 0x00007f4c9008e800 2553             java.lang.AbstractStringBuilder::append (40 bytes)
Event: 164.226 Thread 0x00007f4c9008e800 nmethod 2553 0x00007f4c8d46cc10 code [0x00007f4c8d46cd60, 0x00007f4c8d46cf48]

GC Heap History (10 events):
Event: 162.599 GC heap after
Heap after GC invocations=56 (full 5):
 PSYoungGen      total 287744K, used 32573K [0x00000000eb680000, 0x0000000100000000, 0x0000000100000000)
  eden space 239104K, 0% used [0x00000000eb680000,0x00000000eb680000,0x00000000fa000000)
  from space 48640K, 66% used [0x00000000fa000000,0x00000000fbfcf7d8,0x00000000fcf80000)
  to   space 48640K, 0% used [0x00000000fd080000,0x00000000fd080000,0x0000000100000000)
 ParOldGen       total 343040K, used 304850K [0x00000000c2400000, 0x00000000d7300000, 0x00000000eb680000)
  object space 343040K, 88% used [0x00000000c2400000,0x00000000d4db4890,0x00000000d7300000)
 PSPermGen       total 83968K, used 65312K [0x00000000bd200000, 0x00000000c2400000, 0x00000000c2400000)
  object space 83968K, 77% used [0x00000000bd200000,0x00000000c11c8150,0x00000000c2400000)
}
Event: 162.969 GC heap before
{Heap before GC invocations=57 (full 5):
 PSYoungGen      total 287744K, used 271677K [0x00000000eb680000, 0x0000000100000000, 0x0000000100000000)
  eden space 239104K, 100% used [0x00000000eb680000,0x00000000fa000000,0x00000000fa000000)
  from space 48640K, 66% used [0x00000000fa000000,0x00000000fbfcf7d8,0x00000000fcf80000)
  to   space 48640K, 0% used [0x00000000fd080000,0x00000000fd080000,0x0000000100000000)
 ParOldGen       total 343040K, used 304850K [0x00000000c2400000, 0x00000000d7300000, 0x00000000eb680000)
  object space 343040K, 88% used [0x00000000c2400000,0x00000000d4db4890,0x00000000d7300000)
 PSPermGen       total 83968K, used 65312K [0x00000000bd200000, 0x00000000c2400000, 0x00000000c2400000)
  object space 83968K, 77% used [0x00000000bd200000,0x00000000c11c8150,0x00000000c2400000)
Event: 163.054 GC heap after
Heap after GC invocations=57 (full 5):
 PSYoungGen      total 287744K, used 32507K [0x00000000eb680000, 0x00000000fff00000, 0x0000000100000000)
  eden space 240128K, 0% used [0x00000000eb680000,0x00000000eb680000,0x00000000fa100000)
  from space 47616K, 68% used [0x00000000fd080000,0x00000000ff03ef48,0x00000000fff00000)
  to   space 48128K, 0% used [0x00000000fa100000,0x00000000fa100000,0x00000000fd000000)
 ParOldGen       total 343040K, used 304850K [0x00000000c2400000, 0x00000000d7300000, 0x00000000eb680000)
  object space 343040K, 88% used [0x00000000c2400000,0x00000000d4db4890,0x00000000d7300000)
 PSPermGen       total 83968K, used 65312K [0x00000000bd200000, 0x00000000c2400000, 0x00000000c2400000)
  object space 83968K, 77% used [0x00000000bd200000,0x00000000c11c8150,0x00000000c2400000)
}
Event: 163.347 GC heap before
{Heap before GC invocations=58 (full 5):
 PSYoungGen      total 287744K, used 272635K [0x00000000eb680000, 0x00000000fff00000, 0x0000000100000000)
  eden space 240128K, 100% used [0x00000000eb680000,0x00000000fa100000,0x00000000fa100000)
  from space 47616K, 68% used [0x00000000fd080000,0x00000000ff03ef48,0x00000000fff00000)
  to   space 48128K, 0% used [0x00000000fa100000,0x00000000fa100000,0x00000000fd000000)
 ParOldGen       total 343040K, used 304850K [0x00000000c2400000, 0x00000000d7300000, 0x00000000eb680000)
  object space 343040K, 88% used [0x00000000c2400000,0x00000000d4db4890,0x00000000d7300000)
 PSPermGen       total 83968K, used 65313K [0x00000000bd200000, 0x00000000c2400000, 0x00000000c2400000)
  object space 83968K, 77% used [0x00000000bd200000,0x00000000c11c8450,0x00000000c2400000)
Event: 163.407 GC heap after
Heap after GC invocations=58 (full 5):
 PSYoungGen      total 288256K, used 32738K [0x00000000eb680000, 0x00000000fff80000, 0x0000000100000000)
  eden space 240128K, 0% used [0x00000000eb680000,0x00000000eb680000,0x00000000fa100000)
  from space 48128K, 68% used [0x00000000fa100000,0x00000000fc0f8bc8,0x00000000fd000000)
  to   space 47616K, 0% used [0x00000000fd100000,0x00000000fd100000,0x00000000fff80000)
 ParOldGen       total 343040K, used 304850K [0x00000000c2400000, 0x00000000d7300000, 0x00000000eb680000)
  object space 343040K, 88% used [0x00000000c2400000,0x00000000d4db4890,0x00000000d7300000)
 PSPermGen       total 83968K, used 65313K [0x00000000bd200000, 0x00000000c2400000, 0x00000000c2400000)
  object space 83968K, 77% used [0x00000000bd200000,0x00000000c11c8450,0x00000000c2400000)
}
Event: 163.764 GC heap before
{Heap before GC invocations=59 (full 5):
 PSYoungGen      total 288256K, used 272866K [0x00000000eb680000, 0x00000000fff80000, 0x0000000100000000)
  eden space 240128K, 100% used [0x00000000eb680000,0x00000000fa100000,0x00000000fa100000)
  from space 48128K, 68% used [0x00000000fa100000,0x00000000fc0f8bc8,0x00000000fd000000)
  to   space 47616K, 0% used [0x00000000fd100000,0x00000000fd100000,0x00000000fff80000)
 ParOldGen       total 343040K, used 304850K [0x00000000c2400000, 0x00000000d7300000, 0x00000000eb680000)
  object space 343040K, 88% used [0x00000000c2400000,0x00000000d4db4890,0x00000000d7300000)
 PSPermGen       total 83968K, used 65313K [0x00000000bd200000, 0x00000000c2400000, 0x00000000c2400000)
  object space 83968K, 77% used [0x00000000bd200000,0x00000000c11c8668,0x00000000c2400000)
Event: 163.828 GC heap after
Heap after GC invocations=59 (full 5):
 PSYoungGen      total 288256K, used 22786K [0x00000000eb680000, 0x00000000ffe80000, 0x0000000100000000)
  eden space 241664K, 0% used [0x00000000eb680000,0x00000000eb680000,0x00000000fa280000)
  from space 46592K, 48% used [0x00000000fd100000,0x00000000fe740820,0x00000000ffe80000)
  to   space 47104K, 0% used [0x00000000fa280000,0x00000000fa280000,0x00000000fd080000)
 ParOldGen       total 343040K, used 313056K [0x00000000c2400000, 0x00000000d7300000, 0x00000000eb680000)
  object space 343040K, 91% used [0x00000000c2400000,0x00000000d55b8198,0x00000000d7300000)
 PSPermGen       total 83968K, used 65313K [0x00000000bd200000, 0x00000000c2400000, 0x00000000c2400000)
  object space 83968K, 77% used [0x00000000bd200000,0x00000000c11c8668,0x00000000c2400000)
}
Event: 164.239 GC heap before
{Heap before GC invocations=60 (full 5):
 PSYoungGen      total 288256K, used 264450K [0x00000000eb680000, 0x00000000ffe80000, 0x0000000100000000)
  eden space 241664K, 100% used [0x00000000eb680000,0x00000000fa280000,0x00000000fa280000)
  from space 46592K, 48% used [0x00000000fd100000,0x00000000fe740820,0x00000000ffe80000)
  to   space 47104K, 0% used [0x00000000fa280000,0x00000000fa280000,0x00000000fd080000)
 ParOldGen       total 343040K, used 313056K [0x00000000c2400000, 0x00000000d7300000, 0x00000000eb680000)
  object space 343040K, 91% used [0x00000000c2400000,0x00000000d55b8198,0x00000000d7300000)
 PSPermGen       total 83968K, used 65313K [0x00000000bd200000, 0x00000000c2400000, 0x00000000c2400000)
  object space 83968K, 77% used [0x00000000bd200000,0x00000000c11c8668,0x00000000c2400000)
Event: 164.366 GC heap after
Heap after GC invocations=60 (full 5):
 PSYoungGen      total 246784K, used 4663K [0x00000000eb680000, 0x0000000100000000, 0x0000000100000000)
  eden space 241664K, 0% used [0x00000000eb680000,0x00000000eb680000,0x00000000fa280000)
  from space 5120K, 91% used [0x00000000fa280000,0x00000000fa70dfa0,0x00000000fa780000)
  to   space 49152K, 0% used [0x00000000fd000000,0x00000000fd000000,0x0000000100000000)
 ParOldGen       total 343040K, used 333093K [0x00000000c2400000, 0x00000000d7300000, 0x00000000eb680000)
  object space 343040K, 97% used [0x00000000c2400000,0x00000000d6949488,0x00000000d7300000)
 PSPermGen       total 83968K, used 65313K [0x00000000bd200000, 0x00000000c2400000, 0x00000000c2400000)
  object space 83968K, 77% used [0x00000000bd200000,0x00000000c11c8668,0x00000000c2400000)
}
Event: 164.367 GC heap before
{Heap before GC invocations=61 (full 6):
 PSYoungGen      total 246784K, used 4663K [0x00000000eb680000, 0x0000000100000000, 0x0000000100000000)
  eden space 241664K, 0% used [0x00000000eb680000,0x00000000eb680000,0x00000000fa280000)
  from space 5120K, 91% used [0x00000000fa280000,0x00000000fa70dfa0,0x00000000fa780000)
  to   space 49152K, 0% used [0x00000000fd000000,0x00000000fd000000,0x0000000100000000)
 ParOldGen       total 343040K, used 333093K [0x00000000c2400000, 0x00000000d7300000, 0x00000000eb680000)
  object space 343040K, 97% used [0x00000000c2400000,0x00000000d6949488,0x00000000d7300000)
 PSPermGen       total 83968K, used 65313K [0x00000000bd200000, 0x00000000c2400000, 0x00000000c2400000)
  object space 83968K, 77% used [0x00000000bd200000,0x00000000c11c8668,0x00000000c2400000)

Deoptimization events (10 events):
Event: 157.440 Thread 0x00007f4c9000a000 Uncommon trap: reason=class_check action=maybe_recompile pc=0x00007f4c8d083f24 method=java.util.regex.Pattern$CharProperty$1.isSatisfiedBy(I)Z @ 5
Event: 157.440 Thread 0x00007f4c9000a000 Uncommon trap: reason=class_check action=maybe_recompile pc=0x00007f4c8d083f24 method=java.util.regex.Pattern$CharProperty$1.isSatisfiedBy(I)Z @ 5
Event: 157.440 Thread 0x00007f4c9000a000 Uncommon trap: reason=class_check action=maybe_recompile pc=0x00007f4c8d083f24 method=java.util.regex.Pattern$CharProperty$1.isSatisfiedBy(I)Z @ 5
Event: 157.767 Thread 0x00007f4c9000a000 Uncommon trap: reason=class_check action=maybe_recompile pc=0x00007f4c8d5094c8 method=java.util.regex.Pattern$Loop.match(Ljava/util/regex/Matcher;ILjava/lang/CharSequence;)Z @ 139
Event: 157.790 Thread 0x00007f4c9000a000 Uncommon trap: reason=class_check action=maybe_recompile pc=0x00007f4c8d5148d0 method=org.apache.ddlutils.translation.ByLineTranslation.exec(Ljava/lang/String;)Ljava/lang/String; @ 41
Event: 157.819 Thread 0x00007f4c9000a000 Uncommon trap: reason=class_check action=maybe_recompile pc=0x00007f4c8d5094c8 method=java.util.regex.Pattern$Loop.match(Ljava/util/regex/Matcher;ILjava/lang/CharSequence;)Z @ 139
Event: 157.856 Thread 0x00007f4c9000a000 Uncommon trap: reason=class_check action=maybe_recompile pc=0x00007f4c8d5094c8 method=java.util.regex.Pattern$Loop.match(Ljava/util/regex/Matcher;ILjava/lang/CharSequence;)Z @ 139
Event: 157.856 Thread 0x00007f4c9000a000 Uncommon trap: reason=class_check action=maybe_recompile pc=0x00007f4c8d5094c8 method=java.util.regex.Pattern$Loop.match(Ljava/util/regex/Matcher;ILjava/lang/CharSequence;)Z @ 139
Event: 157.887 Thread 0x00007f4c9000a000 Uncommon trap: reason=class_check action=maybe_recompile pc=0x00007f4c8d5148d0 method=org.apache.ddlutils.translation.ByLineTranslation.exec(Ljava/lang/String;)Ljava/lang/String; @ 41
Event: 157.977 Thread 0x00007f4c9000a000 Uncommon trap: reason=class_check action=maybe_recompile pc=0x00007f4c8d5148d0 method=org.apache.ddlutils.translation.ByLineTranslation.exec(Ljava/lang/String;)Ljava/lang/String; @ 41

Internal exceptions (10 events):
Event: 156.089 Thread 0x00007f4c9000a000 Threw 0x00000000eb834ab0 at /HUDSON/workspace/7u-2-build-linux-amd64/jdk7u80/2329/hotspot/src/share/vm/prims/jvm.cpp:1319
Event: 156.511 Thread 0x00007f4c9000a000 Threw 0x00000000ec0867c8 at /HUDSON/workspace/7u-2-build-linux-amd64/jdk7u80/2329/hotspot/src/share/vm/prims/jvm.cpp:1319
Event: 156.511 Thread 0x00007f4c9000a000 Threw 0x00000000ec086fc8 at /HUDSON/workspace/7u-2-build-linux-amd64/jdk7u80/2329/hotspot/src/share/vm/prims/jvm.cpp:1319
Event: 156.511 Thread 0x00007f4c9000a000 Threw 0x00000000ec08a108 at /HUDSON/workspace/7u-2-build-linux-amd64/jdk7u80/2329/hotspot/src/share/vm/prims/jvm.cpp:1319
Event: 156.643 Thread 0x00007f4c9000a000 Threw 0x00000000ec5add38 at /HUDSON/workspace/7u-2-build-linux-amd64/jdk7u80/2329/hotspot/src/share/vm/prims/jvm.cpp:1319
Event: 156.643 Thread 0x00007f4c9000a000 Threw 0x00000000ec5ae428 at /HUDSON/workspace/7u-2-build-linux-amd64/jdk7u80/2329/hotspot/src/share/vm/prims/jvm.cpp:1319
Event: 156.643 Thread 0x00007f4c9000a000 Threw 0x00000000ec5b07d8 at /HUDSON/workspace/7u-2-build-linux-amd64/jdk7u80/2329/hotspot/src/share/vm/prims/jvm.cpp:1319
Event: 156.649 Thread 0x00007f4c9000a000 Threw 0x00000000ec5c0508 at /HUDSON/workspace/7u-2-build-linux-amd64/jdk7u80/2329/hotspot/src/share/vm/prims/jvm.cpp:1319
Event: 156.649 Thread 0x00007f4c9000a000 Threw 0x00000000ec5c0bf8 at /HUDSON/workspace/7u-2-build-linux-amd64/jdk7u80/2329/hotspot/src/share/vm/prims/jvm.cpp:1319
Event: 156.649 Thread 0x00007f4c9000a000 Threw 0x00000000ec5c2fa8 at /HUDSON/workspace/7u-2-build-linux-amd64/jdk7u80/2329/hotspot/src/share/vm/prims/jvm.cpp:1319

Events (10 events):
Event: 163.054 Executing VM operation: ParallelGCFailedAllocation done
Event: 163.268 Thread 0x00007f4c9008e800 flushing nmethod 0x00007f4c8d4e0310
Event: 163.346 Executing VM operation: ParallelGCFailedAllocation
Event: 163.407 Executing VM operation: ParallelGCFailedAllocation done
Event: 163.644 Thread 0x00007f4c9008e800 flushing nmethod 0x00007f4c8d53c490
Event: 163.644 Thread 0x00007f4c9008e800 flushing nmethod 0x00007f4c8d541350
Event: 163.763 Executing VM operation: ParallelGCFailedAllocation
Event: 163.828 Executing VM operation: ParallelGCFailedAllocation done
Event: 164.226 Thread 0x00007f4c9008e800 flushing nmethod 0x00007f4c8d064990
Event: 164.238 Executing VM operation: ParallelGCFailedAllocation


Dynamic libraries:
00400000-00401000 r-xp 00000000 fd:01 1053065                            /usr/lib/jvm/java-7-oracle/jre/bin/java
00600000-00601000 rw-p 00000000 fd:01 1053065                            /usr/lib/jvm/java-7-oracle/jre/bin/java
0249b000-024bc000 rw-p 00000000 00:00 0                                  [heap]
bd200000-c2400000 rw-p 00000000 00:00 0 
c2400000-d7300000 rw-p 00000000 00:00 0 
dd600000-eb680000 rw-p 00000000 00:00 0 
eb680000-100000000 rw-p 00000000 00:00 0 
7f4c50000000-7f4c50021000 rw-p 00000000 00:00 0 
7f4c50021000-7f4c54000000 ---p 00000000 00:00 0 
7f4c54000000-7f4c54021000 rw-p 00000000 00:00 0 
7f4c54021000-7f4c58000000 ---p 00000000 00:00 0 
7f4c58000000-7f4c58021000 rw-p 00000000 00:00 0 
7f4c58021000-7f4c5c000000 ---p 00000000 00:00 0 
7f4c5c000000-7f4c5c021000 rw-p 00000000 00:00 0 
7f4c5c021000-7f4c60000000 ---p 00000000 00:00 0 
7f4c60000000-7f4c60021000 rw-p 00000000 00:00 0 
7f4c60021000-7f4c64000000 ---p 00000000 00:00 0 
7f4c64000000-7f4c64021000 rw-p 00000000 00:00 0 
7f4c64021000-7f4c68000000 ---p 00000000 00:00 0 
7f4c68000000-7f4c69bc5000 rw-p 00000000 00:00 0 
7f4c69bc5000-7f4c6c000000 ---p 00000000 00:00 0 
7f4c6c000000-7f4c6e1d8000 rw-p 00000000 00:00 0 
7f4c6e1d8000-7f4c70000000 ---p 00000000 00:00 0 
7f4c70000000-7f4c70021000 rw-p 00000000 00:00 0 
7f4c70021000-7f4c74000000 ---p 00000000 00:00 0 
7f4c76daf000-7f4c76db2000 ---p 00000000 00:00 0 
7f4c76db2000-7f4c76eb0000 rw-p 00000000 00:00 0 
7f4c76eb0000-7f4c76eb3000 ---p 00000000 00:00 0 
7f4c76eb3000-7f4c76fb1000 rw-p 00000000 00:00 0 
7f4c76fb1000-7f4c76fb4000 ---p 00000000 00:00 0 
7f4c76fb4000-7f4c770b2000 rw-p 00000000 00:00 0 
7f4c770b2000-7f4c770b5000 ---p 00000000 00:00 0 
7f4c770b5000-7f4c770eb000 rw-p 00000000 00:00 0 
7f4c770eb000-7f4c770ef000 r--s 0008b000 fd:01 1052978                    /usr/lib/jvm/java-7-oracle/jre/lib/jsse.jar
7f4c770ef000-7f4c770f0000 r--s 00001000 fd:01 2351420                    /opt/Openbravo_Sass4D/modules/org.openbravo.client.kernel/lib/runtime/jsmin.0.2.4.jar
7f4c770f0000-7f4c770fc000 r--s 000ee000 fd:01 2351421                    /opt/Openbravo_Sass4D/modules/org.openbravo.client.kernel/lib/runtime/jslint4java-1.4.7.jar
7f4c770fc000-7f4c770fe000 r--s 00005000 fd:01 2352297                    /opt/Openbravo_Sass4D/modules/org.openbravo.client.application/lib/runtime/httpmime-4.1.jar
7f4c770fe000-7f4c77103000 r--s 00026000 fd:01 2352298                    /opt/Openbravo_Sass4D/modules/org.openbravo.client.application/lib/runtime/httpcore-4.0.1.jar
7f4c77103000-7f4c7710a000 r--s 00040000 fd:01 2352299                    /opt/Openbravo_Sass4D/modules/org.openbravo.client.application/lib/runtime/httpclient-4.0.jar
7f4c7710a000-7f4c77118000 r--s 00099000 fd:01 2352300                    /opt/Openbravo_Sass4D/modules/org.openbravo.client.application/lib/runtime/guice-2.0.jar
7f4c77118000-7f4c7711c000 r--s 0000a000 fd:01 2352361                    /opt/Openbravo_Sass4D/modules/org.openbravo.base.weld/lib/runtime/weld-spi.jar
7f4c7711c000-7f4c7711f000 r--s 00011000 fd:01 2352362                    /opt/Openbravo_Sass4D/modules/org.openbravo.base.weld/lib/runtime/weld-servlet-core-1.1.24.Final.jar
7f4c7711f000-7f4c77131000 r--s 000ce000 fd:01 2352363                    /opt/Openbravo_Sass4D/modules/org.openbravo.base.weld/lib/runtime/weld-core-1.1.24.Final.jar
7f4c77131000-7f4c77133000 r--s 00004000 fd:01 2352364                    /opt/Openbravo_Sass4D/modules/org.openbravo.base.weld/lib/runtime/weld-api.jar
7f4c77133000-7f4c77135000 r--s 00009000 fd:01 2352365                    /opt/Openbravo_Sass4D/modules/org.openbravo.base.weld/lib/runtime/slf4j-ext-1.6.1.jar
7f4c77135000-7f4c77136000 r--s 00001000 fd:01 2352366                    /opt/Openbravo_Sass4D/modules/org.openbravo.base.weld/lib/runtime/jboss-interceptor-spi-2.0.0.CR1.jar
7f4c77136000-7f4c77139000 r--s 0000c000 fd:01 2352367                    /opt/Openbravo_Sass4D/modules/org.openbravo.base.weld/lib/runtime/jboss-interceptor-core-2.0.0.CR1.jar
7f4c77139000-7f4c7713b000 r--s 00000000 fd:01 2352368                    /opt/Openbravo_Sass4D/modules/org.openbravo.base.weld/lib/runtime/jboss-interceptor-api-3.1.0-CR3.jar
7f4c7713b000-7f4c7713c000 r--s 00000000 fd:01 2352369                    /opt/Openbravo_Sass4D/modules/org.openbravo.base.weld/lib/runtime/javax.inject.jar
7f4c7713c000-7f4c77167000 r--s 001fc000 fd:01 2352370                    /opt/Openbravo_Sass4D/modules/org.openbravo.base.weld/lib/runtime/guava-18.0.jar
7f4c77167000-7f4c7716a000 r--s 00006000 fd:01 2352371                    /opt/Openbravo_Sass4D/modules/org.openbravo.base.weld/lib/runtime/ejb-api-3.0.jar
7f4c7716a000-7f4c7716d000 r--s 0000a000 fd:01 2352372                    /opt/Openbravo_Sass4D/modules/org.openbravo.base.weld/lib/runtime/cdi-api.jar
7f4c7716d000-7f4c7716f000 r--s 00006000 fd:01 2352373                    /opt/Openbravo_Sass4D/modules/org.openbravo.base.weld/lib/runtime/cal10n-api-0.7.4.jar
7f4c7716f000-7f4c77170000 r--s 00006000 fd:01 2352389                    /opt/Openbravo_Sass4D/modules/org.openbravo.apachejdbcconnectionpool/lib/runtime/tomcat-juli.jar
7f4c77170000-7f4c77172000 r--s 0001d000 fd:01 2352390                    /opt/Openbravo_Sass4D/modules/org.openbravo.apachejdbcconnectionpool/lib/runtime/tomcat-jdbc.jar
7f4c77172000-7f4c7717e000 r--s 00096000 fd:01 2245130                    /opt/Openbravo_Sass4D/modules/com.atrums.felectronica/lib/runtime/xmlsec-1.4.2-ADSI-1.1.jar
7f4c7717e000-7f4c77181000 r--s 00018000 fd:01 2245129                    /opt/Openbravo_Sass4D/modules/com.atrums.felectronica/lib/runtime/xmlrpc-1.2-b1.jar
7f4c77181000-7f4c77182000 r--s 00007000 fd:01 2245128                    /opt/Openbravo_Sass4D/modules/com.atrums.felectronica/lib/runtime/xmlrpc-1.2-b1-applet.jar
7f4c77182000-7f4c77187000 r--s 0002d000 fd:01 2245119                    /opt/Openbravo_Sass4D/modules/com.atrums.felectronica/lib/runtime/bcmail-jdk15-140.jar
7f4c77187000-7f4c7718a000 r--s 00014000 fd:01 2245118                    /opt/Openbravo_Sass4D/modules/com.atrums.felectronica/lib/runtime/barbecue-1.5-beta1.jar
7f4c7718a000-7f4c77192000 r--s 0007a000 fd:01 2245127                    /opt/Openbravo_Sass4D/modules/com.atrums.felectronica/lib/runtime/MITyCLibXADES-1.1.7.jar
7f4c77192000-7f4c77198000 r--s 00047000 fd:01 2245125                    /opt/Openbravo_Sass4D/modules/com.atrums.felectronica/lib/runtime/MITyCLibTrust-1.1.7.jar
7f4c77198000-7f4c77199000 r--s 00011000 fd:01 2245126                    /opt/Openbravo_Sass4D/modules/com.atrums.felectronica/lib/runtime/MITyCLibTSA-1.1.7.jar
7f4c77199000-7f4c7719b000 r--s 00019000 fd:01 2245124                    /opt/Openbravo_Sass4D/modules/com.atrums.felectronica/lib/runtime/MITyCLibPolicy-1.1.7.jar
7f4c7719b000-7f4c7719d000 r--s 0001c000 fd:01 2245123                    /opt/Openbravo_Sass4D/modules/com.atrums.felectronica/lib/runtime/MITyCLibOCSP-1.1.7.jar
7f4c7719d000-7f4c7719f000 r--s 0001f000 fd:01 2245122                    /opt/Openbravo_Sass4D/modules/com.atrums.felectronica/lib/runtime/MITyCLibCrypt-1.1.7.jar
7f4c7719f000-7f4c771a6000 r--s 0044c000 fd:01 2245121                    /opt/Openbravo_Sass4D/modules/com.atrums.felectronica/lib/runtime/MITyCLibCert-1.1.7.jar
7f4c771a6000-7f4c771aa000 r--s 00029000 fd:01 2245120                    /opt/Openbravo_Sass4D/modules/com.atrums.felectronica/lib/runtime/MITyCLibAPI-1.1.7.jar
7f4c771aa000-7f4c771b0000 r--s 0006e000 fd:01 2109199                    /opt/Openbravo_Sass4D/src-db/database/lib/wstx-asl-3.0.2.jar
7f4c771b0000-7f4c771b2000 r--s 0000e000 fd:01 2109200                    /opt/Openbravo_Sass4D/src-db/database/lib/jakarta-oro-2.0.8.jar
7f4c771b2000-7f4c771bd000 r--s 000b4000 fd:01 2109201                    /opt/Openbravo_Sass4D/src-db/database/lib/dbsourcemanager.jar
7f4c771bd000-7f4c771be000 r--s 00001000 fd:01 2111271                    /opt/Openbravo_Sass4D/src-db/database/lib/dbmanager.jar
7f4c771be000-7f4c771c4000 r--s 00036000 fd:01 2109202                    /opt/Openbravo_Sass4D/src-db/database/lib/commons-betwixt-0.8.jar
7f4c771c4000-7f4c771c9000 r--s 00066000 fd:01 1715418                    /opt/Openbravo_Sass4D/src-wad/lib/openbravo-wad.jar
7f4c771c9000-7f4c771ca000 r--s 00005000 fd:01 1984785                    /opt/Openbravo_Sass4D/src-trl/lib/openbravo-trl.jar
7f4c771ca000-7f4c771ce000 r--s 0003d000 fd:01 2111272                    /opt/Openbravo_Sass4D/src-core/lib/openbravo-core.jar
7f4c771ce000-7f4c771d4000 r--s 00036000 fd:01 802171                     /opt/Openbravo_Sass4D/lib/test/junit.jar
7f4c771d4000-7f4c771da000 r--s 00045000 fd:01 802172                     /opt/Openbravo_Sass4D/lib/test/hamcrest-all-1.3.jar
7f4c771da000-7f4c771e5000 r--s 0005f000 fd:01 802174                     /opt/Openbravo_Sass4D/lib/runtime/xstream-1.3.1.jar
7f4c771e5000-7f4c771ef000 r--s 00089000 fd:01 802175                     /opt/Openbravo_Sass4D/lib/runtime/xmlgraphics-commons-1.5.jar
7f4c771ef000-7f4c77206000 r--s 00114000 fd:01 802176                     /opt/Openbravo_Sass4D/lib/runtime/xercesImpl.jar
7f4c77206000-7f4c77209000 r--s 0001c000 fd:01 802177                     /opt/Openbravo_Sass4D/lib/runtime/wsdl4j-1.5.1.jar
7f4c77209000-7f4c7720f000 r--s 0004b000 fd:01 802178                     /opt/Openbravo_Sass4D/lib/runtime/tika-core-0.9.jar
7f4c7720f000-7f4c77210000 r--s 00002000 fd:01 802179                     /opt/Openbravo_Sass4D/lib/runtime/slf4j-log4j12-1.6.1.jar
7f4c77210000-7f4c77212000 r--s 00005000 fd:01 802180                     /opt/Openbravo_Sass4D/lib/runtime/slf4j-api-1.6.1.jar
7f4c77212000-7f4c77213000 r--s 00001000 fd:01 802181                     /opt/Openbravo_Sass4D/lib/runtime/renderFoRmi.jar
7f4c77213000-7f4c77219000 r--s 00067000 fd:01 802182                     /opt/Openbravo_Sass4D/lib/runtime/quartz-1.6.2.jar
7f4c77219000-7f4c77220000 r--s 0008e000 fd:01 802183                     /opt/Openbravo_Sass4D/lib/runtime/postgresql-9.4.1207.jre6.jar
7f4c77220000-7f4c77241000 r--s 001bb000 fd:01 802184                     /opt/Openbravo_Sass4D/lib/runtime/poi-3.10.1.jar
7f4c77241000-7f4c77245000 r--s 0003d000 fd:01 802326                     /opt/Openbravo_Sass4D/lib/runtime/openbravo-core.jar
7f4c77245000-7f4c77257000 r--s 001fc000 fd:01 802185                     /opt/Openbravo_Sass4D/lib/runtime/ojdbc6.jar
7f4c77257000-7f4c77259000 r--s 00018000 fd:01 802186                     /opt/Openbravo_Sass4D/lib/runtime/nekohtml.jar
7f4c77259000-7f4c77260000 r--s 00072000 fd:01 802187                     /opt/Openbravo_Sass4D/lib/runtime/mail-1.4.4.jar
7f4c77260000-7f4c77269000 r--s 0006d000 fd:01 802188                     /opt/Openbravo_Sass4D/lib/runtime/log4j-1.2.16.jar
7f4c77269000-7f4c77275000 r--s 000aa000 fd:01 802189                     /opt/Openbravo_Sass4D/lib/runtime/jxl-2.6.10.jar
7f4c77275000-7f4c77277000 r--s 00001000 fd:01 802190                     /opt/Openbravo_Sass4D/lib/runtime/jta.jar
7f4c77277000-7f4c77287000 r--s 0013f000 fd:01 802191                     /opt/Openbravo_Sass4D/lib/runtime/jfreechart-1.0.12.jar
7f4c77287000-7f4c77289000 r--s 00010000 fd:01 802192                     /opt/Openbravo_Sass4D/lib/runtime/jettison-1.3.jar
7f4c77289000-7f4c7729b000 r--s 00223000 fd:01 802193                     /opt/Openbravo_Sass4D/lib/runtime/jdt-compiler-4.4.2.jar
7f4c7729b000-7f4c772a1000 r--s 00046000 fd:01 802194                     /opt/Openbravo_Sass4D/lib/runtime/jcommon-1.0.15.jar
7f4c772a1000-7f4c772a3000 r--s 00006000 fd:01 802195                     /opt/Openbravo_Sass4D/lib/runtime/jaxrpc.jar
7f4c772a3000-7f4c772ac000 r--s 00095000 fd:01 802196                     /opt/Openbravo_Sass4D/lib/runtime/javassist-3.14.0-GA.jar
7f4c772ac000-7f4c772ae000 r--s 0025c000 fd:01 802197                     /opt/Openbravo_Sass4D/lib/runtime/jasperreports-fonts-6.0.0.jar
7f4c772ae000-7f4c7730a000 r--s 0048c000 fd:01 802198                     /opt/Openbravo_Sass4D/lib/runtime/jasperreports-6.0.0.jar
7f4c7730a000-7f4c7731c000 r--s 00105000 fd:01 802199                     /opt/Openbravo_Sass4D/lib/runtime/jackson-databind-2.5.1.jar
7f4c7731c000-7f4c77320000 r--s 00035000 fd:01 802200                     /opt/Openbravo_Sass4D/lib/runtime/jackson-core-2.5.1.jar
7f4c77320000-7f4c77322000 r--s 00008000 fd:01 802201                     /opt/Openbravo_Sass4D/lib/runtime/jackson-annotations-2.5.1.jar
7f4c77322000-7f4c77338000 r--s 001ef000 fd:01 802202                     /opt/Openbravo_Sass4D/lib/runtime/itextpdf-5.5.0.jar
7f4c77338000-7f4c7733a000 r--s 0000c000 fd:01 802203                     /opt/Openbravo_Sass4D/lib/runtime/itext-pdfa-5.5.0.jar
7f4c7733a000-7f4c77346000 r--s 00108000 fd:01 802431                     /opt/Openbravo_Sass4D/lib/runtime/iText-2.1.7.jar
7f4c77346000-7f4c7738e000 r--s 003aa000 fd:01 802204                     /opt/Openbravo_Sass4D/lib/runtime/hibernate3-patched.jar
7f4c7738e000-7f4c77393000 r--s 00014000 fd:01 802205                     /opt/Openbravo_Sass4D/lib/runtime/hibernate-jpa-2.0-api-1.0.0.Final.jar
7f4c77393000-7f4c773a3000 r--s 000c8000 fd:01 802206                     /opt/Openbravo_Sass4D/lib/runtime/freemarker-2.3.16.jar
7f4c773a3000-7f4c773dc000 r--s 00329000 fd:01 802207                     /opt/Openbravo_Sass4D/lib/runtime/fop-1.1.jar
7f4c773dc000-7f4c773e1000 r--s 00048000 fd:01 802208                     /opt/Openbravo_Sass4D/lib/runtime/dom4j-1.6.1.jar
7f4c773e1000-7f4c773e4000 r--s 00016000 fd:01 802209                     /opt/Openbravo_Sass4D/lib/runtime/commons-pool-1.5.6.jar
7f4c773e4000-7f4c773e6000 r--s 0000d000 fd:01 802210                     /opt/Openbravo_Sass4D/lib/runtime/commons-logging-1.1.1.jar
7f4c773e6000-7f4c773eb000 r--s 00041000 fd:01 802211                     /opt/Openbravo_Sass4D/lib/runtime/commons-lang-2.6.jar
7f4c773eb000-7f4c773ef000 r--s 0002a000 fd:01 802212                     /opt/Openbravo_Sass4D/lib/runtime/commons-io-2.4.jar
7f4c773ef000-7f4c773f1000 r--s 0000d000 fd:01 802213                     /opt/Openbravo_Sass4D/lib/runtime/commons-fileupload-1.2.2.jar
7f4c773f1000-7f4c773f4000 r--s 0000f000 fd:01 802214                     /opt/Openbravo_Sass4D/lib/runtime/commons-discovery-0.2.jar
7f4c773f4000-7f4c773f8000 r--s 00020000 fd:01 802215                     /opt/Openbravo_Sass4D/lib/runtime/commons-digester-1.8.1.jar
7f4c773f8000-7f4c773fb000 r--s 00025000 fd:01 802216                     /opt/Openbravo_Sass4D/lib/runtime/commons-dbcp-1.4.jar
7f4c773fb000-7f4c77409000 r--s 0007f000 fd:01 802217                     /opt/Openbravo_Sass4D/lib/runtime/commons-collections-3.2.1.jar
7f4c77409000-7f4c7740b000 r--s 00010000 fd:01 802218                     /opt/Openbravo_Sass4D/lib/runtime/commons-codec-1.5.jar
7f4c7740b000-7f4c77410000 r--s 00034000 fd:01 802219                     /opt/Openbravo_Sass4D/lib/runtime/commons-beanutils-1.8.3.jar
7f4c77410000-7f4c77412000 r--s 00005000 fd:01 802220                     /opt/Openbravo_Sass4D/lib/runtime/catalina-ant.jar
7f4c77412000-7f4c77413000 r--s 00007000 fd:01 802221                     /opt/Openbravo_Sass4D/lib/runtime/batik-xml.jar
7f4c77413000-7f4c77416000 r--s 0001d000 fd:01 802222                     /opt/Openbravo_Sass4D/lib/runtime/batik-util.jar
7f4c77416000-7f4c7741b000 r--s 00030000 fd:01 802223                     /opt/Openbravo_Sass4D/lib/runtime/batik-svggen.jar
7f4c7741b000-7f4c77428000 r--s 00087000 fd:01 802224                     /opt/Openbravo_Sass4D/lib/runtime/batik-svg-dom.jar
7f4c77428000-7f4c7742b000 r--s 0000d000 fd:01 802225                     /opt/Openbravo_Sass4D/lib/runtime/batik-script.jar
7f4c7742b000-7f4c7742d000 r--s 00010000 fd:01 802226                     /opt/Openbravo_Sass4D/lib/runtime/batik-parser.jar
7f4c7742d000-7f4c77431000 r--s 00038000 fd:01 802227                     /opt/Openbravo_Sass4D/lib/runtime/batik-gvt.jar
7f4c77431000-7f4c77435000 r--s 00027000 fd:01 802229                     /opt/Openbravo_Sass4D/lib/runtime/batik-dom.jar
7f4c77435000-7f4c7743d000 r--s 00045000 fd:01 802230                     /opt/Openbravo_Sass4D/lib/runtime/batik-css.jar
7f4c7743d000-7f4c77447000 r--s 00080000 fd:01 802231                     /opt/Openbravo_Sass4D/lib/runtime/batik-bridge.jar
7f4c77447000-7f4c7744e000 r--s 0005c000 fd:01 802232                     /opt/Openbravo_Sass4D/lib/runtime/batik-awt-util.jar
7f4c7744e000-7f4c77454000 r--s 00043000 fd:01 802234                     /opt/Openbravo_Sass4D/lib/runtime/barcode4j-fop-ext-complete.jar
7f4c77454000-7f4c77468000 r--s 00173000 fd:01 802235                     /opt/Openbravo_Sass4D/lib/runtime/axis.jar
7f4c77468000-7f4c77769000 rw-p 00000000 00:00 0 
7f4c77769000-7f4c77780000 r-xp 00000000 fd:01 1052386                    /usr/lib/jvm/java-7-oracle/jre/lib/amd64/libnet.so
7f4c77780000-7f4c7797f000 ---p 00017000 fd:01 1052386                    /usr/lib/jvm/java-7-oracle/jre/lib/amd64/libnet.so
7f4c7797f000-7f4c77980000 rw-p 00016000 fd:01 1052386                    /usr/lib/jvm/java-7-oracle/jre/lib/amd64/libnet.so
7f4c77980000-7f4c77990000 r-xp 00000000 fd:01 1052352                    /usr/lib/jvm/java-7-oracle/jre/lib/amd64/libnio.so
7f4c77990000-7f4c77b90000 ---p 00010000 fd:01 1052352                    /usr/lib/jvm/java-7-oracle/jre/lib/amd64/libnio.so
7f4c77b90000-7f4c77b91000 rw-p 00010000 fd:01 1052352                    /usr/lib/jvm/java-7-oracle/jre/lib/amd64/libnio.so
7f4c77b91000-7f4c77bfc000 r--s 00e21000 fd:01 1054335                    /usr/lib/jvm/java-7-oracle/lib/tools.jar
7f4c77bfc000-7f4c77bfd000 ---p 00000000 00:00 0 
7f4c77bfd000-7f4c77cfd000 rw-p 00000000 00:00 0 
7f4c77cfd000-7f4c77d00000 ---p 00000000 00:00 0 
7f4c77d00000-7f4c77dfe000 rw-p 00000000 00:00 0 
7f4c77dfe000-7f4c77e01000 ---p 00000000 00:00 0 
7f4c77e01000-7f4c77eff000 rw-p 00000000 00:00 0 
7f4c77eff000-7f4c77f02000 ---p 00000000 00:00 0 
7f4c77f02000-7f4c78000000 rw-p 00000000 00:00 0 
7f4c78000000-7f4c78021000 rw-p 00000000 00:00 0 
7f4c78021000-7f4c7c000000 ---p 00000000 00:00 0 
7f4c7c000000-7f4c7c021000 rw-p 00000000 00:00 0 
7f4c7c021000-7f4c80000000 ---p 00000000 00:00 0 
7f4c80000000-7f4c80028000 rw-p 00000000 00:00 0 
7f4c80028000-7f4c84000000 ---p 00000000 00:00 0 
7f4c84000000-7f4c84279000 rw-p 00000000 00:00 0 
7f4c84279000-7f4c88000000 ---p 00000000 00:00 0 
7f4c88000000-7f4c8802e000 rw-p 00000000 00:00 0 
7f4c8802e000-7f4c8c000000 ---p 00000000 00:00 0 
7f4c8c000000-7f4c8c001000 r--s 00002000 fd:01 802228                     /opt/Openbravo_Sass4D/lib/runtime/batik-ext.jar
7f4c8c001000-7f4c8c004000 r--s 00015000 fd:01 802233                     /opt/Openbravo_Sass4D/lib/runtime/batik-anim.jar
7f4c8c004000-7f4c8c006000 r--s 00007000 fd:01 802236                     /opt/Openbravo_Sass4D/lib/runtime/axis-ant.jar
7f4c8c006000-7f4c8c009000 r--s 0000f000 fd:01 802237                     /opt/Openbravo_Sass4D/lib/runtime/avalon-framework-4.1.5.jar
7f4c8c009000-7f4c8c00e000 r--s 00068000 fd:01 802238                     /opt/Openbravo_Sass4D/lib/runtime/antlr-2.7.7.jar
7f4c8c00e000-7f4c8c016000 r--s 00063000 fd:01 802239                     /opt/Openbravo_Sass4D/lib/runtime/ant-nodeps.jar
7f4c8c016000-7f4c8c017000 r--s 00004000 fd:01 802240                     /opt/Openbravo_Sass4D/lib/runtime/ant-launcher-1.9.2.jar
7f4c8c017000-7f4c8c019000 r--s 00001000 fd:01 802241                     /opt/Openbravo_Sass4D/lib/runtime/ant-apache-log4j-1.9.2.jar
7f4c8c019000-7f4c8c037000 r--s 001cb000 fd:01 802242                     /opt/Openbravo_Sass4D/lib/runtime/ant-1.9.2.jar
7f4c8c037000-7f4c8c040000 r--s 000c7000 fd:01 802244                     /opt/Openbravo_Sass4D/lib/build/yuicompressor-2.4.2.jar
7f4c8c040000-7f4c8c042000 r--s 00014000 fd:01 802245                     /opt/Openbravo_Sass4D/lib/build/servlet-api.jar
7f4c8c042000-7f4c8c04b000 r--s 000be000 fd:01 802246                     /opt/Openbravo_Sass4D/lib/build/ob-rhino-1.6R7.jar
7f4c8c04b000-7f4c8c054000 r--s 000cc000 fd:01 802247                     /opt/Openbravo_Sass4D/lib/build/js.jar
7f4c8c054000-7f4c8c055000 r--s 00001000 fd:01 802248                     /opt/Openbravo_Sass4D/lib/build/YUIAnt.jar
7f4c8c055000-7f4c8c05f000 r--s 00253000 fd:01 1052429                    /usr/lib/jvm/java-7-oracle/jre/lib/resources.jar
7f4c8c05f000-7f4c8c060000 r--s 00003000 fd:01 659496                     /usr/share/java/ant-javamail-1.9.6.jar
7f4c8c060000-7f4c8c061000 r--s 00003000 fd:01 659492                     /usr/share/java/ant-apache-bcel-1.9.6.jar
7f4c8c061000-7f4c8c063000 r--s 0001b000 fd:01 659493                     /usr/share/java/ant-junit-1.9.6.jar
7f4c8c063000-7f4c8c082000 r--s 001d1000 fd:01 659482                     /usr/share/java/ant-1.9.6.jar
7f4c8c082000-7f4c8c083000 r--s 00003000 fd:01 659489                     /usr/share/java/ant-swing-1.9.6.jar
7f4c8c083000-7f4c8c084000 r--s 00002000 fd:01 660106                     /usr/share/java/ant-apache-resolver-1.9.6.jar
7f4c8c084000-7f4c8c085000 r--s 00002000 fd:01 659488                     /usr/share/java/ant-apache-regexp-1.9.6.jar
7f4c8c085000-7f4c8c086000 r--s 00002000 fd:01 659499                     /usr/share/java/ant-apache-oro-1.9.6.jar
7f4c8c086000-7f4c8c087000 r--s 00002000 fd:01 659491                     /usr/share/java/ant-apache-bsf-1.9.6.jar
7f4c8c087000-7f4c8c089000 r--s 00002000 fd:01 659501                     /usr/share/java/ant-junit4-1.9.6.jar
7f4c8c089000-7f4c8c08a000 r--s 00004000 fd:01 659483                     /usr/share/java/ant-launcher-1.9.6.jar
7f4c8c08a000-7f4c8c08b000 r--s 00006000 fd:01 660104                     /usr/share/java/ant-testutil-1.9.6.jar
7f4c8c08b000-7f4c8c08e000 r--s 00014000 fd:01 660105                     /usr/share/java/ant-commons-net-1.9.6.jar
7f4c8c08e000-7f4c8c08f000 r--s 00003000 fd:01 659498                     /usr/share/java/ant-jdepend-1.9.6.jar
7f4c8c08f000-7f4c8c091000 r--s 0000a000 fd:01 659487                     /usr/share/java/ant-jsch-1.9.6.jar
7f4c8c091000-7f4c8c092000 r--s 00002000 fd:01 659490                     /usr/share/java/ant-antlr-1.9.6.jar
7f4c8c092000-7f4c8c095000 ---p 00000000 00:00 0 
7f4c8c095000-7f4c8c193000 rw-p 00000000 00:00 0 
7f4c8c193000-7f4c8c4b3000 r--p 00000000 fd:01 261276                     /usr/lib/locale/locale-archive
7f4c8c4b3000-7f4c8c4b6000 ---p 00000000 00:00 0 
7f4c8c4b6000-7f4c8c5b4000 rw-p 00000000 00:00 0 
7f4c8c5b4000-7f4c8c5b7000 ---p 00000000 00:00 0 
7f4c8c5b7000-7f4c8c6b5000 rw-p 00000000 00:00 0 
7f4c8c6b5000-7f4c8c6b6000 ---p 00000000 00:00 0 
7f4c8c6b6000-7f4c8d000000 rw-p 00000000 00:00 0 
7f4c8d000000-7f4c8d5c0000 rwxp 00000000 00:00 0 
7f4c8d5c0000-7f4c911d7000 rw-p 00000000 00:00 0 
7f4c911d7000-7f4c94000000 ---p 00000000 00:00 0 
7f4c94000000-7f4c94002000 r--s 00002000 fd:01 659500                     /usr/share/java/ant-jmf-1.9.6.jar
7f4c94002000-7f4c9416f000 rw-p 00000000 00:00 0 
7f4c9416f000-7f4c9432f000 r--s 039fb000 fd:01 1053034                    /usr/lib/jvm/java-7-oracle/jre/lib/rt.jar
7f4c9432f000-7f4c967c4000 rw-p 00000000 00:00 0 
7f4c967c4000-7f4c967c5000 ---p 00000000 00:00 0 
7f4c967c5000-7f4c968c5000 rw-p 00000000 00:00 0 
7f4c968c5000-7f4c968c6000 ---p 00000000 00:00 0 
7f4c968c6000-7f4c96a6e000 rw-p 00000000 00:00 0 
7f4c96a6e000-7f4c96b10000 rw-p 00000000 00:00 0 
7f4c96b10000-7f4c96b39000 rw-p 00000000 00:00 0 
7f4c96b39000-7f4c96be1000 rw-p 00000000 00:00 0 
7f4c96be1000-7f4c96c82000 rw-p 00000000 00:00 0 
7f4c96c82000-7f4c96d27000 rw-p 00000000 00:00 0 
7f4c96d27000-7f4c96d28000 rw-p 00000000 00:00 0 
7f4c96d28000-7f4c96d3f000 r-xp 00000000 fd:01 1052381                    /usr/lib/jvm/java-7-oracle/jre/lib/amd64/libzip.so
7f4c96d3f000-7f4c96f3f000 ---p 00017000 fd:01 1052381                    /usr/lib/jvm/java-7-oracle/jre/lib/amd64/libzip.so
7f4c96f3f000-7f4c96f40000 rw-p 00017000 fd:01 1052381                    /usr/lib/jvm/java-7-oracle/jre/lib/amd64/libzip.so
7f4c96f40000-7f4c96f4b000 r-xp 00000000 fd:01 652838                     /lib/x86_64-linux-gnu/libnss_files-2.23.so
7f4c96f4b000-7f4c9714a000 ---p 0000b000 fd:01 652838                     /lib/x86_64-linux-gnu/libnss_files-2.23.so
7f4c9714a000-7f4c9714b000 r--p 0000a000 fd:01 652838                     /lib/x86_64-linux-gnu/libnss_files-2.23.so
7f4c9714b000-7f4c9714c000 rw-p 0000b000 fd:01 652838                     /lib/x86_64-linux-gnu/libnss_files-2.23.so
7f4c9714c000-7f4c97152000 rw-p 00000000 00:00 0 
7f4c97152000-7f4c9715d000 r-xp 00000000 fd:01 652835                     /lib/x86_64-linux-gnu/libnss_nis-2.23.so
7f4c9715d000-7f4c9735c000 ---p 0000b000 fd:01 652835                     /lib/x86_64-linux-gnu/libnss_nis-2.23.so
7f4c9735c000-7f4c9735d000 r--p 0000a000 fd:01 652835                     /lib/x86_64-linux-gnu/libnss_nis-2.23.so
7f4c9735d000-7f4c9735e000 rw-p 0000b000 fd:01 652835                     /lib/x86_64-linux-gnu/libnss_nis-2.23.so
7f4c9735e000-7f4c97374000 r-xp 00000000 fd:01 652833                     /lib/x86_64-linux-gnu/libnsl-2.23.so
7f4c97374000-7f4c97573000 ---p 00016000 fd:01 652833                     /lib/x86_64-linux-gnu/libnsl-2.23.so
7f4c97573000-7f4c97574000 r--p 00015000 fd:01 652833                     /lib/x86_64-linux-gnu/libnsl-2.23.so
7f4c97574000-7f4c97575000 rw-p 00016000 fd:01 652833                     /lib/x86_64-linux-gnu/libnsl-2.23.so
7f4c97575000-7f4c97577000 rw-p 00000000 00:00 0 
7f4c97577000-7f4c9757f000 r-xp 00000000 fd:01 652830                     /lib/x86_64-linux-gnu/libnss_compat-2.23.so
7f4c9757f000-7f4c9777e000 ---p 00008000 fd:01 652830                     /lib/x86_64-linux-gnu/libnss_compat-2.23.so
7f4c9777e000-7f4c9777f000 r--p 00007000 fd:01 652830                     /lib/x86_64-linux-gnu/libnss_compat-2.23.so
7f4c9777f000-7f4c97780000 rw-p 00008000 fd:01 652830                     /lib/x86_64-linux-gnu/libnss_compat-2.23.so
7f4c97780000-7f4c977a9000 r-xp 00000000 fd:01 1052347                    /usr/lib/jvm/java-7-oracle/jre/lib/amd64/libjava.so
7f4c977a9000-7f4c979a9000 ---p 00029000 fd:01 1052347                    /usr/lib/jvm/java-7-oracle/jre/lib/amd64/libjava.so
7f4c979a9000-7f4c979ab000 rw-p 00029000 fd:01 1052347                    /usr/lib/jvm/java-7-oracle/jre/lib/amd64/libjava.so
7f4c979ab000-7f4c979b8000 r-xp 00000000 fd:01 1052374                    /usr/lib/jvm/java-7-oracle/jre/lib/amd64/libverify.so
7f4c979b8000-7f4c97bb7000 ---p 0000d000 fd:01 1052374                    /usr/lib/jvm/java-7-oracle/jre/lib/amd64/libverify.so
7f4c97bb7000-7f4c97bb9000 rw-p 0000c000 fd:01 1052374                    /usr/lib/jvm/java-7-oracle/jre/lib/amd64/libverify.so
7f4c97bb9000-7f4c97bc0000 r-xp 00000000 fd:01 652847                     /lib/x86_64-linux-gnu/librt-2.23.so
7f4c97bc0000-7f4c97dbf000 ---p 00007000 fd:01 652847                     /lib/x86_64-linux-gnu/librt-2.23.so
7f4c97dbf000-7f4c97dc0000 r--p 00006000 fd:01 652847                     /lib/x86_64-linux-gnu/librt-2.23.so
7f4c97dc0000-7f4c97dc1000 rw-p 00007000 fd:01 652847                     /lib/x86_64-linux-gnu/librt-2.23.so
7f4c97dc1000-7f4c97ec9000 r-xp 00000000 fd:01 652844                     /lib/x86_64-linux-gnu/libm-2.23.so
7f4c97ec9000-7f4c980c8000 ---p 00108000 fd:01 652844                     /lib/x86_64-linux-gnu/libm-2.23.so
7f4c980c8000-7f4c980c9000 r--p 00107000 fd:01 652844                     /lib/x86_64-linux-gnu/libm-2.23.so
7f4c980c9000-7f4c980ca000 rw-p 00108000 fd:01 652844                     /lib/x86_64-linux-gnu/libm-2.23.so
7f4c980ca000-7f4c98c40000 r-xp 00000000 fd:01 1052401                    /usr/lib/jvm/java-7-oracle/jre/lib/amd64/server/libjvm.so
7f4c98c40000-7f4c98e3f000 ---p 00b76000 fd:01 1052401                    /usr/lib/jvm/java-7-oracle/jre/lib/amd64/server/libjvm.so
7f4c98e3f000-7f4c98f03000 rw-p 00b75000 fd:01 1052401                    /usr/lib/jvm/java-7-oracle/jre/lib/amd64/server/libjvm.so
7f4c98f03000-7f4c98f44000 rw-p 00000000 00:00 0 
7f4c98f44000-7f4c99104000 r-xp 00000000 fd:01 652867                     /lib/x86_64-linux-gnu/libc-2.23.so
7f4c99104000-7f4c99303000 ---p 001c0000 fd:01 652867                     /lib/x86_64-linux-gnu/libc-2.23.so
7f4c99303000-7f4c99307000 r--p 001bf000 fd:01 652867                     /lib/x86_64-linux-gnu/libc-2.23.so
7f4c99307000-7f4c99309000 rw-p 001c3000 fd:01 652867                     /lib/x86_64-linux-gnu/libc-2.23.so
7f4c99309000-7f4c9930d000 rw-p 00000000 00:00 0 
7f4c9930d000-7f4c99310000 r-xp 00000000 fd:01 652869                     /lib/x86_64-linux-gnu/libdl-2.23.so
7f4c99310000-7f4c9950f000 ---p 00003000 fd:01 652869                     /lib/x86_64-linux-gnu/libdl-2.23.so
7f4c9950f000-7f4c99510000 r--p 00002000 fd:01 652869                     /lib/x86_64-linux-gnu/libdl-2.23.so
7f4c99510000-7f4c99511000 rw-p 00003000 fd:01 652869                     /lib/x86_64-linux-gnu/libdl-2.23.so
7f4c99511000-7f4c99526000 r-xp 00000000 fd:01 1052393                    /usr/lib/jvm/java-7-oracle/jre/lib/amd64/jli/libjli.so
7f4c99526000-7f4c99725000 ---p 00015000 fd:01 1052393                    /usr/lib/jvm/java-7-oracle/jre/lib/amd64/jli/libjli.so
7f4c99725000-7f4c99726000 rw-p 00014000 fd:01 1052393                    /usr/lib/jvm/java-7-oracle/jre/lib/amd64/jli/libjli.so
7f4c99726000-7f4c9973e000 r-xp 00000000 fd:01 652865                     /lib/x86_64-linux-gnu/libpthread-2.23.so
7f4c9973e000-7f4c9993d000 ---p 00018000 fd:01 652865                     /lib/x86_64-linux-gnu/libpthread-2.23.so
7f4c9993d000-7f4c9993e000 r--p 00017000 fd:01 652865                     /lib/x86_64-linux-gnu/libpthread-2.23.so
7f4c9993e000-7f4c9993f000 rw-p 00018000 fd:01 652865                     /lib/x86_64-linux-gnu/libpthread-2.23.so
7f4c9993f000-7f4c99943000 rw-p 00000000 00:00 0 
7f4c99943000-7f4c99969000 r-xp 00000000 fd:01 652848                     /lib/x86_64-linux-gnu/ld-2.23.so
7f4c99969000-7f4c9996a000 r--s 00002000 fd:01 659494                     /usr/share/java/ant-commons-logging-1.9.6.jar
7f4c9996a000-7f4c99993000 rw-p 00000000 00:00 0 
7f4c99993000-7f4c999aa000 rw-p 00000000 00:00 0 
7f4c999aa000-7f4c99a53000 rw-p 00000000 00:00 0 
7f4c99a53000-7f4c99a5b000 rw-s 00000000 fd:01 676958                     /tmp/hsperfdata_sistemas/26390
7f4c99a5b000-7f4c99a5e000 ---p 00000000 00:00 0 
7f4c99a5e000-7f4c99b60000 rw-p 00000000 00:00 0 
7f4c99b60000-7f4c99b62000 r--s 00001000 fd:01 659497                     /usr/share/java/ant-apache-log4j-1.9.6.jar
7f4c99b62000-7f4c99b63000 r--s 00001000 fd:01 659495                     /usr/share/java/ant-apache-xalan2-1.9.6.jar
7f4c99b63000-7f4c99b64000 r--s 00004000 fd:01 659483                     /usr/share/java/ant-launcher-1.9.6.jar
7f4c99b64000-7f4c99b65000 rw-p 00000000 00:00 0 
7f4c99b65000-7f4c99b66000 ---p 00000000 00:00 0 
7f4c99b66000-7f4c99b68000 rw-p 00000000 00:00 0 
7f4c99b68000-7f4c99b69000 r--p 00025000 fd:01 652848                     /lib/x86_64-linux-gnu/ld-2.23.so
7f4c99b69000-7f4c99b6a000 rw-p 00026000 fd:01 652848                     /lib/x86_64-linux-gnu/ld-2.23.so
7f4c99b6a000-7f4c99b6b000 rw-p 00000000 00:00 0 
7fffca9f8000-7fffcaa19000 rw-p 00000000 00:00 0                          [stack]
7fffcaba6000-7fffcaba8000 r--p 00000000 00:00 0                          [vvar]
7fffcaba8000-7fffcabaa000 r-xp 00000000 00:00 0                          [vdso]
ffffffffff600000-ffffffffff601000 r-xp 00000000 00:00 0                  [vsyscall]

VM Arguments:
jvm_args: -Dant.home=/usr/share/ant -Dant.library.dir=/usr/share/ant/lib 
java_command: org.apache.tools.ant.launch.Launcher -cp  export.database
Launcher Type: SUN_STANDARD

Environment Variables:
JAVA_HOME=/usr/lib/jvm/java-7-oracle/
PATH=/usr/local/sbin:/usr/local/bin:/usr/sbin:/usr/bin:/sbin:/bin:/usr/games:/usr/local/games
SHELL=/bin/bash

Signal Handlers:
SIGSEGV: [libjvm.so+0x9a3b20], sa_mask[0]=0x7ffbfeff, sa_flags=0x10000004
SIGBUS: [libjvm.so+0x9a3b20], sa_mask[0]=0x7ffbfeff, sa_flags=0x10000004
SIGFPE: [libjvm.so+0x81e740], sa_mask[0]=0x7ffbfeff, sa_flags=0x10000004
SIGPIPE: [libjvm.so+0x81e740], sa_mask[0]=0x7ffbfeff, sa_flags=0x10000004
SIGXFSZ: [libjvm.so+0x81e740], sa_mask[0]=0x7ffbfeff, sa_flags=0x10000004
SIGILL: [libjvm.so+0x81e740], sa_mask[0]=0x7ffbfeff, sa_flags=0x10000004
SIGUSR1: SIG_DFL, sa_mask[0]=0x00000000, sa_flags=0x00000000
SIGUSR2: [libjvm.so+0x81ffb0], sa_mask[0]=0x00000000, sa_flags=0x10000004
SIGHUP: [libjvm.so+0x8210d0], sa_mask[0]=0x7ffbfeff, sa_flags=0x10000004
SIGINT: [libjvm.so+0x8210d0], sa_mask[0]=0x7ffbfeff, sa_flags=0x10000004
SIGTERM: [libjvm.so+0x8210d0], sa_mask[0]=0x7ffbfeff, sa_flags=0x10000004
SIGQUIT: [libjvm.so+0x8210d0], sa_mask[0]=0x7ffbfeff, sa_flags=0x10000004


---------------  S Y S T E M  ---------------

OS:stretch/sid

uname:Linux 4.4.0-34-generic #53-Ubuntu SMP Wed Jul 27 16:06:39 UTC 2016 x86_64
libc:glibc 2.23 NPTL 2.23 
rlimit: STACK 8192k, CORE 0k, NPROC 15750, NOFILE 65536, AS infinity
load average:2.74 1.89 1.40

/proc/meminfo:
MemTotal:        4046696 kB
MemFree:          102836 kB
MemAvailable:          0 kB
Buffers:             196 kB
Cached:             3628 kB
SwapCached:            0 kB
Active:          3869868 kB
Inactive:            484 kB
Active(anon):    3869640 kB
Inactive(anon):      192 kB
Active(file):        228 kB
Inactive(file):      292 kB
Unevictable:        5712 kB
Mlocked:            5712 kB
SwapTotal:             0 kB
SwapFree:              0 kB
Dirty:                80 kB
Writeback:             0 kB
AnonPages:       3872436 kB
Mapped:             2844 kB
Shmem:               684 kB
Slab:              31960 kB
SReclaimable:      16148 kB
SUnreclaim:        15812 kB
KernelStack:        4128 kB
PageTables:        11916 kB
NFS_Unstable:          0 kB
Bounce:                0 kB
WritebackTmp:          0 kB
CommitLimit:     2023348 kB
Committed_AS:    4157996 kB
VmallocTotal:   34359738367 kB
VmallocUsed:           0 kB
VmallocChunk:          0 kB
HardwareCorrupted:     0 kB
AnonHugePages:   2564096 kB
CmaTotal:              0 kB
CmaFree:               0 kB
HugePages_Total:       0
HugePages_Free:        0
HugePages_Rsvd:        0
HugePages_Surp:        0
Hugepagesize:       2048 kB
DirectMap4k:       53228 kB
DirectMap2M:     2043904 kB
DirectMap1G:     2097152 kB


CPU:total 2 (1 cores per cpu, 1 threads per core) family 6 model 63 stepping 2, cmov, cx8, fxsr, mmx, sse, sse2, sse3, ssse3, sse4.1, sse4.2, popcnt, avx, avx2, aes, erms, tsc

/proc/cpuinfo:
processor	: 0
vendor_id	: GenuineIntel
cpu family	: 6
model		: 63
model name	: Intel(R) Xeon(R) CPU E5-2650L v3 @ 1.80GHz
stepping	: 2
microcode	: 0x1
cpu MHz		: 1799.998
cache size	: 30720 KB
physical id	: 0
siblings	: 1
core id		: 0
cpu cores	: 1
apicid		: 0
initial apicid	: 0
fpu		: yes
fpu_exception	: yes
cpuid level	: 13
wp		: yes
flags		: fpu vme de pse tsc msr pae mce cx8 apic sep mtrr pge mca cmov pat pse36 clflush mmx fxsr sse sse2 ss syscall nx pdpe1gb rdtscp lm constant_tsc arch_perfmon rep_good nopl eagerfpu pni pclmulqdq vmx ssse3 fma cx16 pcid sse4_1 sse4_2 x2apic movbe popcnt tsc_deadline_timer aes xsave avx f16c rdrand hypervisor lahf_lm abm vnmi ept fsgsbase tsc_adjust bmi1 avx2 smep bmi2 erms invpcid xsaveopt arat
bugs		:
bogomips	: 3599.99
clflush size	: 64
cache_alignment	: 64
address sizes	: 40 bits physical, 48 bits virtual
power management:

processor	: 1
vendor_id	: GenuineIntel
cpu family	: 6
model		: 63
model name	: Intel(R) Xeon(R) CPU E5-2650L v3 @ 1.80GHz
stepping	: 2
microcode	: 0x1
cpu MHz		: 1799.998
cache size	: 30720 KB
physical id	: 1
siblings	: 1
core id		: 0
cpu cores	: 1
apicid		: 1
initial apicid	: 1
fpu		: yes
fpu_exception	: yes
cpuid level	: 13
wp		: yes
flags		: fpu vme de pse tsc msr pae mce cx8 apic sep mtrr pge mca cmov pat pse36 clflush mmx fxsr sse sse2 ss syscall nx pdpe1gb rdtscp lm constant_tsc arch_perfmon rep_good nopl eagerfpu pni pclmulqdq vmx ssse3 fma cx16 pcid sse4_1 sse4_2 x2apic movbe popcnt tsc_deadline_timer aes xsave avx f16c rdrand hypervisor lahf_lm abm vnmi ept fsgsbase tsc_adjust bmi1 avx2 smep bmi2 erms invpcid xsaveopt arat
bugs		:
bogomips	: 3599.99
clflush size	: 64
cache_alignment	: 64
address sizes	: 40 bits physical, 48 bits virtual
power management:



Memory: 4k page, physical 4046696k(102828k free), swap 0k(0k free)

vm_info: Java HotSpot(TM) 64-Bit Server VM (24.80-b11) for linux-amd64 JRE (1.7.0_80-b15), built on Apr 10 2015 19:53:14 by "java_re" with gcc 4.3.0 20080428 (Red Hat 4.3.0-8)

time: Tue Jul  4 15:40:11 2017
elapsed time: 170 seconds

